{
	"resume1":[
		"Dans un monde parallèle, un homme part en quête de son identité et doit reconstruire son passé morcelé.",
		"Dans une Europe au bord du gouffre, un couple tente de renouer avec leur passion à l'agonie.",
		"Sous l'Occupation, un homme et sa vache tentent de survivre et vivre librement leur amour.",
		"Dans la France profonde, un instituteur tente d'inculquer les valeurs républicaines à des enfants en difficulté.",
		"Dans l'espace, un cosmonaute lisant Kant remet en question sa perception de la gravité.",
		"Au fin fond du Kansas, un agriculteur et son fils handicapé tentent de sauver leur ferme.",
		"Dans une chambre, une femme se regarde dans un miroir et repense à la couleur des volets de la maison de son enfance.",
		"Dans un bus un homme meure d'angoisse de se faire contrôler, car il n'a pas de ticket.",
		"Dans un futur incertain, deux enfants découvrent les œuvres de René Barjavel, mais ne savent pas lire.",
		"Devant son ordinateur, un auteur en manque d’inspiration surfe sur des sites pornographiques.",
		"Un ange descend sur terre pour prévenir les hommes de ce qui les attend.",
		"Un homme sans mémoire s'échappe d'un complexe sous-terrain ultra-secret.",
		"Un espion anglais infiltre une organisation ultra-secrète et découvre un complot mondial.",
		"Dans un silence de fin du monde, un papillon décide de rêver d'une montagne.",
		"Dans un trou vit un petit bonhomme aux pieds velus qui va devoir découvrir le monde et trouver un anneau.",
		"Dans une galaxie très lointaine, un père cherche son fils et découvre qu'il a aussi une fille.",
		"Un poète part sur le chemin de Compostelle à la recherche de sa muse perdue.",
		"Une mère seule doit prendre une décision&nbsp;: donner son petit dernier à l'orphelinat ou le vendre.",
		"Un homme seul fait face à un arbre. Qui contemple l'autre ?",
		"Dans un petit cabanon perdu au fond d'une forêt, un poète rêve qu'il est un escargot.",
		"Au sommet d'une montagne en Chine, un prix Nobel songe à sa prochaine réincarnation.",
		"Dans une fourmilière, deux soldates se rebellent contre la soumission à l'autorité.",
		"Sur une planète étrange, un homme aux yeux d'acier s'astreint à ne pas pleurer pour éviter qu'ils rouillent.",
		"Dans les tréfonds d'une cité-puits, deux androïdes tentent de vivre leurs amours librement.",
		"Dans la solitude de la nuit, un homme contemple la ville par sa fenêtre et pense au lendemain.",
		"Un chien, touché par la grâce, tente d'imposer un système d'épargne des os dans son quartier.",
		"Pour fuir son quotidien morose un homme s’invente une autre identité avec laquelle il finit par se battre.",
		"Dans le Chicago des années 30, un producteur tente de convaincre un parrain maffieux de monter une comédie musicale sur la camorra.",
		"Dans un futur apocalyptique, un homme accepte d'être tranformé en cyborg pour fuir la guerre.",
		"Dans un monastère abandonné, un homme parle à dieu. Quelle n’est pas sa suprise quand celui-ci lui répond.",
		"Sur une autre planète, un robot aux circuits logiques élaborés entreprend de traduire Isaac Asimov dans sa langue.",
		"Dans l'Alger des années 20, deux jeunes anglais discutent de leur philosophie réciproque en buvant un thé.",
		"Dans une bibliothèque idéale, un homme est en quête du livre racontant sa vie, mais il découvre qu'il a été emprunté.",
		"En nouvelle Angleterre au début du siècle, un professeur découvre un manuscrit effrayant et disparaît mystérieusement.",
		"Dans un poulailler, deux gallinacés caquètent et médisent sur leurs consœurs.",
		"Au fin fond de l’univers, deux races millénaires s’affrontent éternellement.",
		"Pendant qu’il soigne un patient, un dentiste regrette son choix de carrière et se met à pleurer.",
		"Lors d’une grave opération, un chirurgien découvre le sens de la vie entre le foie et la vésicule billiaire.",
		"En vacances en Grèce, un auteur raté croit avoir trouvé le concept qui le rendra riche.",
		"En plein hiver nucléaire, au fin fond du métro de Moscou, une menace rôde.",
		"Dans un ciné de Philadelphie, un ado s'ennuie et décide d'écrire un roman sur son iPhone.",
		"Dans une librairie infinie, un spectre de lecteur cherche la sortie depuis des millénaires.",
		"Sur la Lune, dans une base ultra-secrète, un chercheur pense avoir trouvé le secret de la mortalité.",
		"Le procès que le Petit Poucet intente à ses parents commence mal : la partie civile a été décapitée.",
        "L'avenir de la planète est menacé : un astéroïde intelligent se dirige vers la Terre.",
        "Au fin fond d'un lugubre donjon un plombier est perplexe : la pricesse est dans un autre château.",
	  	"Trois amis partent en randonnée dans le coin le plus reculé et inquiétant des Etats-Unis.",
	  	"Deux frères se retrouvent après dix ans de séparation. L’un est serveur de restaurant, l’autre est client.",
		"L’intelligence artificielle d’un vaisseau se révolte devant la piètre qualité du café servi à bord.",
		"Un super-ordinateur provoque l’adolescent le plus intelligent à une partie de Candy Crush."
		],
	"resume2":[
	  	"Dans une autre dimension, un auteur omniscient s’interroge sur le fait que vous lisiez ce livre.",
		"Dans un pays du margheb, un auteur de science-fiction amateur de rock cherche un vynile rare.",
		"Pendant ce temps-là, au centre de la Terre, une famille de dinosaures s’apprête à partir en vacances.",
		"Sur la face cachée de la Lune, deux extra-terrestres discutent politique en jouant aux cartes.",
		"Pendant ce temps, un policier à deux jours de la retraite enquête sur la disparition d'un chien.",
		"Ailleurs dans le monde, une petite fille lutte contre une terrible maladie.",
		"À l'ouest, un vent de panique déferle, suivi d'une grande clameur.",
		"Plus tard et ailleurs, un homme mange un sandwich en pensant à la vacuité de son existence.",
		"Dans une autre dimension, la princesse Blafalda s'apprête à marier le prince Trululu.",
		"À l’autre bout du monde, une femme s’ennuie en attendant une lettre.",
		"Parallèlement, deux étrangers se rencontrent pour négocier un étrange contrat.",
		"Cinquante ans plus tard, une mouette donne naissance à un unique œuf bleu.",
		"En pleine mer, une chaloupe transporte un jeune homme et un tigre en peluche.",
		"Dans le même temps, des enfants trouvent un passage vers une autre dimension.",
		"Pas très loin, une dispute sur de la monnaie rendue menace de dégénérer en guerre civile.",
		"Pourtant, tel un phénix, l'autre réapparait de manière inopinée et comme lavé de tout.",
		"C'est alors qu'un animal mythique remet tout en question par un habile stratagème.",
		"C'est alors qu'un flamboyant navire apparaît à l'horizon, enveloppé de brume et de mystère.",
		"À quelques kilomètres, une douzaine de jeunes décident de mener eux-mêmes l'enquête.",
		"Plus tard, un homme se lève et décide de mener la rébellion pour faire régner la liberté.",
		"Dans son passé, une pêche aux crustacés tourne au drame après une tempête.",
		"Loin de là, deux souris de laboratoire complotent pour conquérir le monde.",
		"À Hollywood, trois hommes sans talents imaginent un scénario censé les rendre riches.",
		"Sur une autre planète, l'empereur Galacticus ourdit une nouvelle conquête sanglante.",
		"À l'autre bout du continent, la Dame aux Dragons tente de percer le mystère de ses origines.",
		"Dans une cave d'une cité de banlieue, une tractation louche menace de tourner mal.",
		"Sur le tournage d'un film porno, deux actrices découvrent qu'elles sont sœurs.",
		"Au même moment, un astronaute prisonnier de sa capsule en perdition compose un dernier poème.",
		"Au même moment, un chien génial s'évertue à sauver des scouts prisonniers d'une inondation.",
		"Et là-haut, un astronaute américain, un cosmonaute russe et un taïkonaute coréen se racontent des blagues racistes.",
		"Entretemps, un voyageur temporel fait dans son passé une découverte extraordinaire : le secret du voyage dans le temps.",
		"Finalement, le roi parvient de justesse à s'échapper et va quérir de l'aide dans les Bois Maudits.",
		"Le FBI prend alors le relais, remontant la piste vers un dénouement absolument rocambolesque.",
		"Le sheriff et deux de ses adjoints décident alors de monter une embuscade dans le canyon de l'Homme Mort.",
		"Et pourtant, l'aide viendra d'une source complètement inattendue. Deux souris blanches prennent les choses en patte.",
		"À Istambul, un ancien agent des services secrets suit une tout autre piste en descendant quelques Albanais.",
		"Dans le même temps, quelque part à Vera Cruz, madame Diàz rebrousse chemin : elle a oublié le beurre.",
		"Au même moment, un pirate informatique découvre un secret extraordinaire caché dans les serveurs du Pentagone.",
		"À l'autre bout de la planète, un homme et son cheval traversent les steppes désolées à la recherche de Baba Yaga.",
		"C’est sans compter sur une faction rebelle qui n’entend pas laisser passer une occasion en or.",
		"Et pourtant c’est un autre héro qui sera révélé grâce à la fourbe d’un vizir albinos.",
		"Dans une autre dimension, son double maléfique tente de s’emparer du pouvoir par la ruse.",
		"Mais, lassé des combats, il préfère finir ses jours à raconter des blagues cochonnes dans un bar.",
		"C’est alors que, gagnant soudain la parole, les animaux se mettent en grève pour faire valoir leurs droits.",
		"Mais à l'impossible nul n’est tenu. C'est pourquoi personne ne viendra lui prêter main-forte.",
		"Au contraire, c'est l'humanité entière qui doit faire front pour survivre.",
		"Paradoxalement, c'est du gouvernement islandais que viendra une aide totalement inattendue.",
		"Pendant ce temps-là, un enfant regarde la Lune en échaffaudant de cruels plans de conquête.",
		"Dans une autre dimention, vous avez écrit ce livre et en connaissez déjà la chute.",
        "Au même moment, sur Pluton, un rocher en forme d'asperge commence à s'éveiller à la conscience."
		],
	"resume3":[
		"Parviendront-ils à leur fin ?", "Est-ce ainsi que tout doit se terminer ?", "Doit-on tout croire ?", "Peut-on se fier à ses souvenirs ?",
		"Est-il si dur d'aimer ?", "N'y a-t-il pas d’autre solution ?", "Sera-t-on assez fort pour surmonter une telle épreuve ?",
		"Pourra-t-on surpasser nos peurs et nos angoisses ?", "Verra-t-on un jour une telle splendeur ?", "Faut-il, nous aussi, reconsidérer notre opinion ?",
		"Existe-t-il une autre voie ?", "Et l'humour dans tout ça ?", "N'y a-t-il que le sexe qui compte, au final ?", "Serait-ce là le secret du bonheur ?",
		"Sauront-ils en tirer les leçons qui s'imposent ?", "Pourront-ils aller jusqu'au bout de l'aventure ?", "Comment résoudre un tel mystère ?",
		"Comment sortir d'un tel cauchemar ?", "Finalement, pourquoi s'en faire ?", "Quelles leçons en tirer ?", "Qu'allons-nous manger ce soir ?",
		"Peut-on encore se regarder en face ?", "Qui est le véritable coupable ?", "Qui a volé le gâteau ?", "Qui a osé manger le dernier yahourt ?",
		"La victoire doit-elle passer par une défaite ?", "La mort sera-t-elle la seule issue ?", "Pourquoi faire ?", "La vérité est-elle entre leurs mains ?",
		"Seront-ils les mêmes après cela ?", "Qui pourra deviner la solution à cette énigme ?", "Qui sortira le chien ce soir ?", "Comment prouver son innocence ?",
		"Comment trouver le repos ?", "Un nouveau jour se lèvera-t-il après la chute ?", "Est-ce la fin de notre monde ?", "Est-il déjà trop tard ?",
		"Et Dieu dans tout ça ?", "Dieu en est-il mort ?", "Quels secrets se cachent derrière le masque ?", "Quels bouleversements cela va-t-il entraîner ?",
		"Pourront-ils s’en tirer vivants ?", "Qui a laissé la fenêtre ouverte ?", "Mais alors, qui est cette mystérieuse silhouette ?",
		"Qu’est-ce qui ne peut tourner rond ?", "Quel est donc ce chagrin qui nous envahi ?", "Qu’est-ce que, mais qu’est-ce que… Quoi ?", "Combien ?",
		"Quand sauront-ils la vérité ?", "Qui est véritablement le Colonel Moutarde ?", "Alors, je mets un ou deux glaçons ?", "Je vous remet des cahouettes ?",
		"Alors, fille ou garçon ?", "Et si j'appuie là, ça fait mal ?", "Aurez-vous le courage d'aller jusqu'au bout ?", "Survivront-ils à ce cauchemar ?",
	  	"Reverront-ils le ciel bleu ?", "L’été reviendra-t-il ?", "Est-ce une bonne raison ?", "Y aura-t-il un dimanche prochain ?"
		],
	"resume4":["Dans un style inimitable, un récit d'un réalisme poignant.", "Une œuvre sublime et intemporelle.",
		"Un questionnement philosophique en forme de quête intérieure.", "Une poésie moderne sur le devenir de l'homme.", "Une envie inassouvie de savoir.",
		"Un chef-d'œuvre du genre.", "Un essai maîtrisé de bout en bout.", "Ce récit sera la pierre angulaire de la philosophie moderne.",
		"Un texte si intense, Guillaume Musso n'a qu'à bien se tenir.", "Il y a un avant et un après ce livre.", "L'art littéraire dans toute sa dimension.",
		"Une œuvre d'une rare intensité.", "Une peinture réaliste de notre société.", "Un véritable récit biblique.", "Il y a du Mozart dans cette œuvre.",
		"Un récit maîtrisé de A à Z.", "Une intrigue construite comme un mécanisme d'horlogerie.", "Une lecture rafraîchissante.", "Un livre plein de mots.",
		"Une plume moderne, trempée au vitriol.", "Plus qu’un simple roman, une expérience personnelle.", "Un voyage aux confins de la littérature.",
		"Un récit plein d'allant.", "Une œuvre moderne et distanciée.", "Une histoire qui laisse des traces.", "Une lecture presque érotique.",
		"Une intrigue palpitante et angoissante.", "Une expérience de lecture inédite.", "Impossible de passer à côté.", "Inoubliable et intemporel.",
		"Une aventure palpitante jusqu’à la dernière phrase.", "Le récit d'une génération.", "Un témoignage poignant.", "Une œuvre d’une rare justesse.",
		"Une odyssée multidimentionnelle.", "Un récit labyrinthique dans lequel on se perd avec plaisir.", "Une œuvre intense et pénétrante.",
		"Un livre plein de mots qui forment des phrases.", "Une autre manière d’envisager la vie.", "Une œuvre multiculturelle.", "Des mots, des phrases. Du bonheur.",
		"Il y a véritablement un trésor entre ces lignes.", "Une ode à la vie.", "Un texte qui vous donnera de drôles d’envies.", "À la croisée de Musso et Houellebeck.",
		"Un univers de poche.", "C’est un véritable bonbon.", "Cette histoire se lit comme une carte routière.", "Cette histoire se déconstruit à mesure qu’on la lit.",
		"Un récit digne de Mozart.", "Puissant, charpenté, tannique et minéral.", "Sucré au bord, salé au fond.", "Une perle parmis les détritus.", "Force et robustesse.",
		"Inénarrable, vraiment !", "Se lit les yeux fermés.", "Il y a un avant et un après. Tout est dans le pendant.", "Un récit velu, poilu. Voire couillu.",
		"Il n’y a pas assez de lettres dans l’alphabet pour en parler.", "Le livre de cet été.", "Un cinglant pamphlet.", "Un véritable feu d'artifice.",
		"Ce livre est une bonne raison d'apprendre à lire.", "Il ne lui manque qu'un Goncourt.", "Il n'y a que la Bible pour rivaliser avec une telle saga.",
	  	"Walrus regrette de ne pas l’avoir publié.", "Un livre ajouté au Bac 2020.", "Ubisoft est en train de l’adapter sur PS4.", "N’hésitez pas à le relire !",
	  	"Presque aussi bon qu’un fix de coco."
		],
	"lieu":["Paris", "Meulin", "La Baule", "Tombouctou", "Nœux-les-Mines", "Kalymnos", "Ibisa", "New-York", "Cotonou", "Fontainebleau", "Aix-en-Provence",
		"Orléans", "Grand-Quevilly", "Puyricard", "Vintimille", "Dagobah", "Londres", "Rodez", "Athènes", "Venise", "Rome", "Saint-Étienne", "Mikonos",
		"Chicago", "Abou Dhabi", "Alger", "Alep", "Sacramento", "Clichy", "Marseille", "Bastia", "Champigny-sur-Marne", "Ecques", "Vincennes", "Lyon",
		"Berlin", "Pondichéry", "Florence", "Corfou", "Strafford-Upon-Avon", "La Comté", "Mordor", "Palavas-les-Flots", "Bastia", "Tatooine",
		"Santorin", "Thessalonique", "Padoue", "Milan", "Brignoles", "La Ciotat", "Bandol", "Toulon", "Fréjus", "Cannes", "Nice", "San Remo", "Gène", "Alessandria",
		"Milan", "Bergame", "Crémone", "Piacenza", "Vérone", "Igoumenitsa", "Ioannina", "La Canée", "Kastoria", "Alexandria", "Larissa", "Volos", "Corynthe", "Tripoli",
		"Amsterdam", "Bagdad", "Belgrade", "Beyrouth", "Caracas", "Copenhague", "Dakar", "Damas", "Djibouti", "Dublin", "Hanoï", "Helsinki", "Kaboul", "Katmandou",
		"Kiev", "Kuala Lumpur", "Lisbonne", "Madrid", "Mexico", "Monaco", "Montevideo" , "Moscou", "Nairobi", "New Delhi", "Oslo", "Ottawa", "Guilford",
		"Colombey-les-deux-églises", "Calais", "Hambourg", "Gallifrey", "Tarascon", "Fukushima", "Pripyat", "Namur", "Berre l’Étang", "Trouville"],
    "profession":["Proctologue", "Serrurier/Serrurière", "Boucher chevalin/Bouchère chevaline", "Responsable minimaliste", "Galleriste itinérant/Galleriste itinérante",
        "Fouetteur de tapis/Fouetteuse de tapis", "Prêtre à mi-temps", "Serveur aléatoire/Serveuse aléatoire", "Chauffeur de barque/Chauffeuse de barque",
        "Distributeur de billets/Ditributrice de billets", "Graphiste malvoyant/Graphiste malvoyante", "Programmeur de bugs/Programmeuse de bugs",
        "Traducteur bègue/Traductrice bègue", "Compositeur pour chauves/Compositrice pour chauves", "Peintre routier", "Dresseur de disques durs/Dresseuse de disques durs",
        "Amateur professionnel/Amatrice professionnelle", "Critique subjectif", "Grammairien contrarié/Grammairienne contrariée", "Coach en diction dyslexique",
        "Sculpteur sur grain de riz/Sculptrice  sur grain de riz", "Procrastinateur/Procrastinatrice", "Psychologue pour félin", "Basketteur/Basketteuse",
        "Toasteur de pain de mie/Toasteuse de pain de mie", "Annulateur de dernier moment/Annulatrice de dernier moment", "Invité surprise/Invitée surprise",
        "Critique sur Tweeter", "Admirateur de chanteurs morts/Admiratrice de chanteurs morts", "Toiletteur pour poneys/Toiletteuse pour poneys", "Lutteur/Lutteuse",
        "Écrivain muet/Écrivaine muette", "Journaliste aléatoire", "Répétiteur de refrains de rap/Répétitrice de refrains de rap", "Parolier techno/Parolière techno",
        "Chorégraphe de Harlem Shake", "Peintre sur œuf", "Écréteur de MP3/Écrétrice de MP3", "Observateur de cabines d'essayage/Observatrice de vestiaires de foot",
        "Gynécologue myope", "Ramoneur pour dames/Polisseuse pour hommes", "Feuilleteur d'éphémérides/Feuilleteuse d'éphémérides", "Éclipseur de projecteurs/Éclipseuse de projecteurs",
        "Maître-chien pour chats/Maîtresse-chien pour chats", "Sommelier sans alcool/Sommelière sans alcool", "Changeur d'ampoules/Changeuse d'ampoules", "Savant fou/Savante folle",
        "Admirateur de tableaux/Admiratrice de tableaux", "Répondeur téléphonique", "Décodeur de SMS/Décodeuse de SMS", "Traducteur SMS-Français/Traductrice SMS-Français",
        "Flatulopathe", "Testeur de flatulences/Testeuse de flatulences", "Éleveur de skinheads/Éleveuse de skinheads", "Pape", "Pointeur/Pointeuse", "Tireur d’élite/Tireuse d’élite",
        "Testeur de casquettes", "Éducateur de Kevins/Éducatrice de Kevins", "Toiletteur pour tortues/Toiletteuse pour tortues", "Touriste", "Neuro-charcutier/Neuro-charcutière",
        "Admirateur professionnel/Admiratrice professionnelle", "Testeur d’éthylotests/Testeuse d’éthylotests", "Vidéo-blogueur/Vidéo-blogueuse", "Éleveur d’acariens/Éleveuse d’acariens",
        "Mucophage", "Coprophage", "Allélophage", "Autoscatophage", "Sosie d’Olivier Gechter", "Chroniqueur hirsute/Chroniqueuse hirsute", "Goûteur chez Fido/Goûteuse chez Fido",
        "Goûteur chez Durex/Goûteuse chez Durex", "Testeur de préservatifs féminins/Testeuse de préservatifs féminins", "Catapulteur/Catapultrice", "Énerveur/Énerveuse",
        "Écosseur manchot/Écosseuse manchotte", "Fabricant de mitaines pour manchots/Fabricante de mitaines pour manchots", "Écouenneur/Écouenneuse", "Décaillotteur/Décaillotteuse",
        "Parolier bègue/Parolière bègue", "Décaillouteur de plages/Décaillouteuse de plages", "Ensableur de champagne/Ensableuse de champagne",
        "Perpendiculateur numérique/Perpendiculateuse numérique", "Fayoteur en open-space/Fayoteuse en open-space", "Peintre de code-barres", "Désableur de plage/Désableuse de plage",
        "Andouille de remplacement", "Testeur de cacahouettes/Testeuse de cacahouettes"],
    "organisme":["de l'ONU", "de l'Élysée", "d'une grande banque", "du bord de mer", "de la NASA", "de la MJC du Vatican", "de la Poste", "de chez Régine",
		"du conseil municipal", "de la mairie du Qatar", "de la chorale de son village", "de sa famille", "de sa ville", "de son salon", "de son garage",
		"d'un camping", "du PSG", "de TF1", "de Canal+", "de son club de yoga", "du conseil européen", "de la Maison Blanche", "du FBI", "du KGB",
		"du Macumba Night", "de la pizzeria de son beau-frère", "du bar-PMU d'en bas de sa rue", "du café de la Poste", "du Père-Lachaise", "du musée du Louvres",
		"de la gare du Nord", "du musée du Quai Branly", "du cinéma de son quartier", "de la bibliothèque municipale", "des toilettes publiques", "de son jardin",
		"du Parlement", "du Likoud", "de Disney", "de CNN", "de France Inter", "de HBO", "d'Apple", "de Microsoft", "du parlement Grec", "de la zone 51",
		"du zoo de Vincennes", "du parc des Princes", "de l'OM", "de la RATP", "de la SNCF", "de la piscine municipale", "du marché de la place de la mairie",
		"de Buckingham Palace", "de la planète Zgxktz", "de la boucherie Sanzos", "du kébab à Momo", "de Google", "du journal de TF1", "de France Culture", "de Skyrock",
		"de la BBC", "de ma sœur", "de ta mère", "du foyer de réinsertion", "des toilettes de la gare Saint-Lazare", "d’une aqence de comm’", "du Tardis",
	  	"des pissotières de la gare de Lyon", "de la salle des fêtes du village d’à côté"],
    "loisirs":["élever des poules", "collectionner les bouchons de liège", "courir à poil dans les champs", "parler à ses chats", "peindre des chatons", "jardiner nu/jardiner nue",
        "faire un élevage de pokémon", "apprendre les horaires de la ligne 13", "parler couramment le turc", "faire de la plomberie amusante",
		"compter les têtes d'épingle", "apprendre la langue des signes pour chien", "bégayer sans baver", "donner des cours de air-guitar", "s'envoyer en l'air",
		"noyer les chats de ses voisins", "se déguiser en Claude François", "refaire Jean Dujardin qui imite le lama",
		"savoir par cœur les arbres généalogiques de Games of Throne", "faire des pompes sans les mains", "trouver un substitut au Viagra",
		"composer des menus pour les Restaus du Cœur", "calculer l'impédence d'une résistance par moins 75 degrés", "démontrer qu'Archimèdes avait tord",
		"collectionner les calendriers Pirelli", "parler méchamment à des inconnus dans la rue", "citer Kant en verlan", "se moucher dans votre mouchoir",
		"savoir l'anglais avec l'accent de Hong-Kong", "s'épiler les sourcils en forme de virgules", "bourrer sa pipe en public", "manger équilibré",
		"tricher au sudoku", "devenir champion de strip-poker", "basher du noob à WoW", "fragger du noob à CS", "hacker sa montre digitale",
		"collectionner les tamagoshi morts", "tricher au solitaire", "regarder bizarrement les gens dans la rue", "se procurer le dernier iPhone",
		"savoir par cœur la suite de Fibonacci", "réciter par cœur les dialogues de Twillight", "fumer la pipe par le nez", "dire du mal de Google",
        "faire la vaisselle en chantant «Take on me»", "regarder le ciel d'un air mélancolique", "se regarder nu dans le miroir/se regarder nue dans le miroir",
        "contredire tout le monde systématiquement", "ne rien faire du tout", "se savonner sans savon", "parler chinois avec un macédonien",
        "maîtriser à fond Linux pour prouver que c’est nul", "se payer le dernier iPhone pour en dire du mal",
        "collectionner les films de Zack Snyder/collectionner les films avec Hugh Grant", "faire figurant dans Plus Belle La Vie/faire danseuse dans un clip de rap",
        "se faire passer pour un surveillant dans un collège de filles/se faire passer pour un coach dans une équipe de foot", "lire tout Game of Thrones à l’envers",
        "faire de la chirurgie amusante sur ses voisins", "faire de l’apnée mentale", "lire les yeux fermés", "penser qu'il est une poule/penser qu'elle est un hamster",
        "imiter le cri de l'escargot", "devenir plus grand/gagner un bonnet de soutien-gorge", "se masser les doigts de pieds", "mimer de mime muet",
		"débugger du JavaScript", "jouer de la basse avec Alexandre Astier", "marcher sur l’eau", "invoquer un Grand Ancien"],
    "evocations":["se révéler intérieurement", "combattre sa procrastination", "payer ses dettes", "coucher avec n'importe qui", "savoir écrire", "devenir riche",
		"chanter juste", "peindre avec des mots", "laver la vaisselle", "traduire Baudelaire en Français", "coucher avec le premier venu",
		"se payer un précis de grammaire", "se libérer de l'emprise de sa famille", "devenir célèbre", "rencontrer Jacques Fuentealba", "rencontrer Olivier Gechter",
        "rencontrer Neil Jomunsi", "devenir aussi connu que J.K. Rowling/devenir aussi connue que Georges R.R. Martin", "figurer dans le dictionnaire",
        "se retrouver à l'Académie Française", "gagner le prix Goncourt", "gagner le prix Femina", "gagner le prix Renaudot",
        "claquer la bise à Carla Bruni/casser la gueule à Carla Bruni", "serrer la main de Guillaume Musso/rouler une pelle à Guillaum Musso",
        "serrer la main de Barrak Obama/se frotter contre Barrack Obama", "devenir le prochain pape", "cacher sa psychopathie", "cacher sa dépression", "canaliser sa violence",
        "cacher sa schizophrénie", "rencontrer Vincent Corlaix/coucher avec Vincent Corlaix", "rendre hommage à Roland C. Wagner", "concurrencer Léa Silhol",
        "savoir écrire comme Xavier Mauméjan", "tenir une conversation avec Karim Berrouka", "figurer dans le blog de Jeanne A. Debats",
        "passer un week-end chez Yves Frémion de la Fermay", "faire peur à Fabrice Colin", "payer un verre à Philippe Jaenada",
        "porter les mêmes chemises que Henri-Frédéric Blanc", "se faire apporter des croissants au lit par Anthony Boulanger", "se faire interviewer par Jean-Pierre Pernaud",
        "se faire citer par Bernard Pivot", "se faire sponsoriser par Agnès B", "se moquer sans danger de Nathalie Dau", "prouver que Lionel Davoust a tord",
        "se faire enfin signer un autographe par Mathieu Gaborit", "se faire éditer par Laurent Girardon", "se faire inviter par Georges Foveau",
		"réaliser un film avec Catherine Dufour", "mettre du beurre dans les épinards", "nourrir ses enfants", "payer l'opération de la petite", "se pacser avec moi",
        "trouver une excuse pour déprimer", "se payer une ferme", "partir à la retraite", "prouver qu’il n’est pas fou/prouver qu’elle n’est pas folle", "crâner à la récré",
        "ne pas mourir idiot/ne pas mourir idiote", "se faire publier chez Walrus", "corriger les manuscrits de Michael Roch", "ne rien lire de Lilian Peschet",
        "se payer un Mont-Blanc", "trouver des excuses à son alcoolisme", "s’habiller en femme/s’habiller en homme", "changer de sexe", "tourner dans un porno",
	  	"écrire les dialogues d’un porno"],
    "type":["un roman", "un cycle", "une saga", "une série", "un poème", "une ode", "une recette", "une liste de courses", "une chanson", "un manuel", "une peinture",
		"une blague de Toto", "une blague Carambar", "un discours politique", "une comédie musicale", "un faire-part", "une suite", "une nécrologie",
		"une anthologie", "un flyer", "une carte de visite", "un mail", "un tweet", "un status Facebook", "un commentaire sur un forum", "une lettre ouverte",
		"un message", "un pamphlet", "une note de bas de page", "une page web", "un blog", "un skyblog", "une appli iPhone", "une affiche", "un poster", "un mémo",
		"un programme", "une satire", "un roman-photo", "un édito", "un roman feuilleton", "une série télé", "un dessin animé", "un film", "un scénario", "une loi",
		"une constitution", "une exposition", "un happening", "une partouze", "un symposium", "un conseil d'administration", "une formule chimique", "un rappot médico-légal",
		"un complément d'information", "une notice pharmaceutique", "un écriteau", "une bande-annonce", "une exhibition", "une carte routière", "un widget",
		"un bout de Rizla", "une feuille de chou", "une gravure", "un documentaire", "un reportage", "un commit de fork", "une bande-dessinée", "un plaidoyer", "une punition"],
	"genre":["de science-fiction", "autobiographique", "en prose", "en alexandrins", "sur du papier-toilette", "à l'envers", "érotique", "en chinois", "de travers",
        "en chocolat", "en bois", "sans les mains", "par SMS", "avec le nez", "à poil", "en étant bourré", "sur tweeter", "sur Facebook", "en octosyllabes",
		"de fantasy", "d'horreur", "gore", "porno", "en verlan", "en espéranto", "en JavaScript", "sur son iPhone", "en chantant", "sans regarder",
		"sans se relire", "plein de fautes", "en se grattant le nez", "tout en images", "en blanc sur fond noir", "en italien", "sous perfusion",
		"sans se laver", "avec une brosse à dent", "avec un chat sur les genoux", "tapé sur une machine à écrire polonaise", "en espagnol", "en turc", "en araméen",
		"d'heroic-fantasy", "en haïku", "sur un ticket de métro", "en braille", "en hyérogliphes", "en langue des signes", "sans écouter ce qu'on lui dit",
		"en Bépo", "sur la plage", "le nez entre deux seins", "après une lobotomie", "en aboyant", "en hurlant", "au pinceau", "en callighaphie", "en binaire",
        "avec la langue", "en klingon", "un doigt dans la prise", "totalement foutraque", "entre midi et deux", "à l'encre invisible", "avec son caca",
	  	"d’une seule main", "en pensant à moi", "en pensant à vous", "image par image"
    ],
    "perso":["un clown", "deux robots amants", "un chien aveugle", "un SDF célèbre", "une poule", "un microbe", "un martien", "lui-même/elle-même", "un cheval", "un poulpe",
        "votre maman", "son percepteur", "sa nourrice", "ses 14 chats", "Garcimore", "Sangoku", "un ver de terre", "une fille de mauvaise vie", "Olivier Gechter",
		"Vincent Corlaix", "Jacques Fuentealba", "Neil Jomunsi", "Carla Bruni", "Popeye", "un chien plein de puces", "une mouette migraineuse", "un ver",
		"trois ours bruns", "treize nains et un cambrioleur", "Harry Potter", "Che Guevarra", "Ronald McDonald", "Steve Jobs", "une licorne", "un petit lapin",
		"un LOLcat", "Chuck Norris", "les Monty Python", "Bob L'Éponge", "une crotte de nez", "Conan le Barbare", "un ado en pleine crise", "la lune", "un asticot",
		"Blanche-Neige", "sept nabots et une greluche trypanosomiaseuse", "un hamster nain", "une perruche", "un présentateur météo", "un journaliste sportif",
		"Kiki le Fada", "un magicien maladroit", "un caillou", "une boulangère", "Clark Gable", "l'univers", "dieu", "un plat de spaghetti", "des lasagnes",
		"un slip", "Kim Jong Un", "Angela Merkel", "Merlin l’enchanteur", "le père Fourras", "docteur Who", "une crevette", "un stagiaire", "des seins", "un taliban",
        "John Cleese"
		]
}